C:\Users\ASUS\Documents\NetBeansProjects\StoreProject\src\main\java\com\mycompany\storeproject\poc\TestDeleteProduct.java
C:\Users\ASUS\Documents\NetBeansProjects\StoreProject\src\main\java\com\mycompany\storeproject\poc\TestInsertProduct.java
C:\Users\ASUS\Documents\NetBeansProjects\StoreProject\src\main\java\com\mycompany\storeproject\poc\TestSelectProduct.java
C:\Users\ASUS\Documents\NetBeansProjects\StoreProject\src\main\java\database\Database.java
C:\Users\ASUS\Documents\NetBeansProjects\StoreProject\src\main\java\com\mycompany\storeproject\poc\TestUpdateProduct.java
C:\Users\ASUS\Documents\NetBeansProjects\StoreProject\src\main\java\dao\DaoInterface.java
C:\Users\ASUS\Documents\NetBeansProjects\StoreProject\src\main\java\ui\ProductPanel.java
C:\Users\ASUS\Documents\NetBeansProjects\StoreProject\src\main\java\dao\ProductDao.java
C:\Users\ASUS\Documents\NetBeansProjects\StoreProject\src\main\java\ui\TestDialog.java
C:\Users\ASUS\Documents\NetBeansProjects\StoreProject\src\main\java\com\mycompany\storeproject\poc\TestConnection.java
C:\Users\ASUS\Documents\NetBeansProjects\StoreProject\src\main\java\model\Product.java
